<svg width="964" height="1065" viewBox="0 0 964 1065" fill="none" xmlns="http://www.w3.org/2000/svg">
<path d="M493.581 1063.64C497.214 1063.64 499.333 1061.82 499.938 1060.91C499.334 1060.31 498.126 1058.91 498.126 1058.19C498.126 1057.28 493.581 1056.37 487.228 1054.55C480.875 1052.74 482.687 1048.2 482.687 1043.66C482.687 1039.11 474.514 1040.93 472.698 1038.21C470.881 1035.48 480.871 1033.66 482.687 1031.85C484.504 1030.03 479.055 1023.67 479.055 1021.86C479.055 1020.04 485.412 1016.41 489.952 1016.41C494.493 1016.41 496.309 1008.23 496.309 1002.78C496.309 997.335 502.667 1000.97 508.115 1001.88C513.564 1002.78 527.187 984.62 523.554 985.528C519.921 986.436 511.748 973.721 509.932 967.364C508.115 961.006 523.554 961.914 527.187 961.914C530.819 961.914 532.635 952.832 536.268 952.832C539.901 952.832 541.717 937.392 540.809 934.667C539.901 931.942 548.982 933.759 553.523 933.759C558.064 933.759 553.523 925.585 551.706 923.768C549.89 921.952 546.258 928.309 543.533 928.309C540.809 928.309 543.533 923.768 545.349 922.86C547.166 921.952 545.349 913.778 546.258 910.145C547.166 906.512 558.064 914.686 562.604 916.502C567.145 918.319 580.767 900.154 583.492 899.246C586.216 898.338 580.767 894.705 579.859 890.163C578.951 885.622 588.032 890.163 593.481 891.072C598.93 891.98 615.277 885.622 621.634 885.622C627.991 885.622 632.532 876.54 633.44 873.815C634.348 871.09 640.705 867.458 643.429 863.825C646.154 860.192 640.705 860.192 638.889 858.375C637.072 856.559 639.797 850.201 641.613 847.476C643.429 844.752 630.715 839.302 630.715 836.577C630.715 833.853 651.603 840.21 663.409 842.027C675.215 843.843 674.306 840.21 680.664 840.21C687.021 840.21 696.102 823.862 695.194 822.954C694.286 822.046 719.714 801.156 722.438 801.156C725.163 801.156 726.979 794.799 726.071 789.349C725.163 783.9 736.969 783.9 742.418 780.267C747.866 776.634 758.764 767.552 762.397 758.469C766.029 749.387 762.397 743.937 758.764 740.304C755.132 736.671 783.284 721.231 783.284 718.507C783.284 715.782 794.182 717.599 798.723 717.599C803.263 717.599 817.794 703.975 823.243 702.159C828.692 700.342 839.589 704.883 843.222 705.791C846.855 706.7 850.487 696.709 850.487 695.801C850.487 694.893 855.028 693.076 858.66 693.076C862.293 693.076 864.109 686.718 862.293 683.086C860.477 679.453 869.558 675.82 871.375 675.82C873.191 675.82 873.191 667.646 870.466 666.737C867.742 665.829 882.272 654.93 884.089 654.93C885.905 654.93 881.364 644.94 884.997 643.123C888.629 641.307 894.986 625.867 896.803 624.958C898.619 624.05 897.711 604.977 895.895 604.069C894.078 603.161 899.527 594.987 901.343 594.987C903.16 594.987 904.976 580.455 904.976 575.914C904.976 571.372 909.517 575.914 914.057 575.914C918.598 575.914 926.772 557.749 925.863 555.024C924.955 552.299 933.129 549.575 936.761 548.667C940.394 547.758 957.649 521.419 961.281 520.511C964.914 519.603 958.557 508.704 957.649 506.888C956.74 505.071 961.281 503.255 961.281 500.53C961.281 497.805 958.557 494.172 956.74 495.081C954.924 495.989 949.475 480.549 949.475 478.732C949.475 476.916 936.761 477.824 932.22 478.732C927.68 479.641 917.69 458.751 917.69 456.935C917.69 455.118 904.068 453.302 903.16 451.485C902.252 449.669 873.191 450.577 872.283 450.577C871.375 450.577 861.385 446.036 859.569 446.036C857.752 446.036 853.212 447.852 853.212 450.577C853.212 453.302 849.579 449.669 846.855 449.669C844.13 449.669 843.222 454.21 841.406 455.118C839.589 456.026 838.681 449.669 838.681 448.761C838.681 447.852 841.406 446.036 845.038 445.128C848.671 444.219 841.406 433.321 840.497 431.504C839.589 429.688 835.049 433.321 834.141 436.045C833.232 438.77 832.324 433.321 830.508 426.963C828.692 420.605 805.08 423.33 803.263 423.33C801.447 423.33 791.458 431.504 789.641 434.229C787.825 436.953 774.203 435.137 773.295 437.862C772.386 440.586 756.04 434.229 754.223 433.321C752.77 432.594 749.985 432.412 748.775 432.412C750.591 429.385 754.768 423.148 756.948 422.422C759.672 421.513 760.581 416.972 760.581 413.339C760.581 409.706 771.478 406.073 775.111 405.165C778.743 404.257 778.743 395.175 780.56 393.358C782.376 391.542 773.295 387 771.478 387C769.662 387 768.754 379.735 768.754 376.102C768.754 372.469 765.121 365.203 763.305 365.203C761.489 365.203 763.305 359.753 763.305 358.845C763.305 357.937 756.948 356.12 755.132 357.029C753.315 357.937 746.958 347.038 746.05 346.13C745.142 345.222 737.877 344.313 736.06 345.222C734.244 346.13 727.887 340.68 726.979 338.864C726.071 337.047 702.459 340.68 701.551 340.68C700.643 340.68 698.826 338.864 698.826 337.047C698.826 335.231 695.194 336.139 693.378 336.139C691.561 336.139 687.021 329.782 686.112 327.965C685.204 326.149 679.755 326.149 676.123 327.057C672.49 327.965 674.306 321.607 673.398 315.25C672.49 308.892 665.225 306.167 665.225 304.351C665.225 302.534 656.143 304.351 651.603 304.351C647.062 304.351 649.786 298.902 650.695 296.177C651.603 293.452 639.797 288.003 637.981 286.186C636.164 284.37 630.715 286.186 627.991 287.094C625.266 288.003 625.266 284.37 623.45 281.645C621.634 278.92 629.807 281.645 630.715 277.104C631.624 272.563 620.726 274.379 617.093 274.379C613.461 274.379 612.552 274.379 611.644 277.104C610.736 279.829 605.287 277.104 601.655 276.196C598.022 275.287 593.481 279.829 591.665 281.645C589.849 283.462 582.584 278.012 581.675 276.196C580.767 274.379 561.696 277.104 558.064 278.012C554.431 278.92 554.431 272.563 554.431 267.113C554.431 261.664 542.625 263.48 539.901 265.297C537.176 267.113 534.452 257.123 531.727 257.123C529.003 257.123 529.003 260.756 529.911 264.389C530.819 268.021 524.462 270.746 522.646 270.746C520.829 270.746 520.829 278.012 520.829 281.645C520.829 285.278 523.554 288.911 519.013 293.452C514.472 297.993 511.748 289.819 509.932 288.003C508.115 286.186 513.564 281.645 514.472 277.104C515.381 272.563 510.84 270.746 509.024 268.021C507.207 265.297 519.921 263.48 521.738 261.664C523.554 259.847 515.381 254.398 514.472 252.581C513.564 250.765 509.932 257.123 507.207 257.123C504.483 257.123 503.575 259.847 503.575 262.572C503.575 265.297 494.493 270.746 490.861 269.838C487.228 268.93 481.779 272.563 480.871 273.471C479.963 274.379 479.055 269.838 476.33 268.021C473.606 266.205 469.065 277.104 467.249 278.012C465.432 278.92 467.249 284.37 467.249 287.094C467.249 289.819 463.616 290.727 461.8 291.636C459.984 292.544 458.167 298.902 456.351 300.718C454.535 302.534 456.351 307.076 453.627 308.892C450.902 310.708 449.994 305.259 449.994 301.626C449.994 298.72 441.518 291.938 437.28 288.911C433.345 288.608 424.929 288.003 422.75 288.003C420.025 288.003 411.852 292.544 409.127 294.36C406.403 296.177 390.964 294.36 389.148 295.268C387.332 296.176 386.424 290.727 385.515 287.094C384.607 283.462 370.077 275.287 367.353 271.654C364.628 268.021 370.077 266.205 371.893 261.664C373.71 257.123 366.444 254.398 365.536 251.673C364.628 248.949 371.893 250.765 374.618 248.04C377.342 245.316 371.893 237.141 369.169 235.325C366.444 233.509 372.801 230.784 375.526 228.967C378.25 227.151 373.71 218.068 372.801 214.436C371.893 210.803 362.812 207.17 360.087 206.261C357.363 205.353 350.098 206.261 348.281 207.17C346.465 208.078 345.557 205.353 342.833 204.445C340.108 203.537 331.935 207.17 330.118 206.261C328.302 205.353 307.415 207.17 305.598 206.261C303.782 205.353 309.231 199.904 311.955 198.996C314.68 198.087 311.955 186.28 311.047 181.739C310.321 178.106 311.955 174.17 312.864 172.657C313.772 172.657 316.315 172.838 319.221 173.565C322.853 174.473 323.761 165.391 323.761 162.666C323.761 160.486 321.945 159.336 321.037 159.033C321.945 157.822 323.761 155.219 323.761 154.492C323.761 153.584 322.853 150.859 321.037 149.043C319.221 147.226 325.578 146.318 328.302 144.501C331.027 142.685 328.302 139.96 328.302 135.419C328.302 130.878 315.588 135.419 311.047 135.419C306.507 135.419 306.507 136.327 305.598 139.052C304.69 141.777 298.333 139.052 292.884 139.052C287.435 139.052 291.068 149.043 291.976 151.767C292.884 154.492 288.344 156.308 288.344 161.758C288.344 167.207 286.527 165.391 282.895 165.391C279.262 165.391 281.078 169.024 281.078 173.565C281.078 178.106 271.997 177.198 270.181 177.198C268.364 177.198 268.364 174.473 266.548 172.657C264.732 170.84 253.834 176.29 241.12 177.198C228.406 178.106 218.416 161.758 216.6 161.758C214.784 161.758 214.784 157.217 216.6 153.584C218.416 149.951 208.427 148.134 205.702 146.318C202.978 144.501 210.243 139.96 212.059 137.235C213.876 134.511 203.886 118.162 202.978 116.346C202.07 114.53 206.61 110.897 206.61 109.08C206.61 107.264 206.61 106.355 203.886 104.539C201.706 103.086 201.767 96.0621 202.07 92.7319C203.583 93.6401 206.974 95.6382 208.427 96.3648C210.243 97.2731 214.784 90.9154 214.784 88.1907C214.784 85.466 202.07 79.1083 198.437 79.1083C194.804 79.1083 175.733 41.8706 173.917 38.2377C172.101 34.6047 163.927 37.3295 159.387 36.4212C154.846 35.513 151.213 42.7789 143.948 45.5036C136.683 48.2283 118.52 14.6235 116.704 14.6235H99.4489C96.7245 14.6235 96.7245 15.5318 95.8163 17.3483C94.9082 19.1647 84.0104 18.2565 66.7556 17.3483C49.5008 16.44 28.6102 1 25.8889 1H1.36807C-0.448225 1 5.00066 27.3389 5.90881 30.9717C6.81696 34.6045 7.72511 36.4212 17.7147 40.9624C27.7044 45.5036 25.8881 55.4942 26.7962 59.1271C27.7044 62.7601 17.7142 59.1271 12.2653 59.1271C6.8164 59.1271 23.1631 71.8424 27.7038 72.7507C32.2445 73.6589 31.3364 69.1178 37.6934 72.7507C44.0505 76.3836 46.7749 83.6495 47.6831 86.3742C48.5912 89.099 44.0505 93.6401 44.0505 94.5483C44.0505 95.4566 44.0505 99.9978 47.6831 99.9978C51.3157 99.9978 62.2134 114.53 65.846 119.071C69.4786 123.612 70.3867 114.53 73.1112 113.621C75.8356 112.713 60.3971 101.814 59.489 99.9978C58.5808 98.1813 58.5808 90.0072 55.8564 87.2825C53.1319 84.5577 55.8564 80.9248 55.8564 74.5672C55.8564 68.2095 50.4075 66.393 46.7749 67.3013C43.1423 68.2095 42.2342 54.5859 42.2342 50.0448C42.2342 45.5036 27.702 34.6046 24.9776 30.9717C22.2531 27.3387 26.7939 11.8987 28.6102 14.6234C30.4265 17.3481 33.1509 14.6234 37.6917 14.6234C42.2324 14.6234 40.4161 19.1646 40.4161 22.7976C40.4161 26.4305 51.3139 45.5035 53.1302 49.1364C54.9465 52.7694 63.1201 57.3105 65.8442 57.3105C68.5683 57.3105 64.9364 61.8517 63.1202 63.6682C61.3039 65.4847 67.6609 70.026 71.2935 69.1178C74.9261 68.2095 74.9261 73.6589 80.375 74.5672C85.8238 75.4754 74.9261 81.8331 74.9261 86.3742C74.9261 90.9154 84.0075 87.2825 88.5483 88.1907C93.089 89.099 101.262 99.0896 103.079 110.897C104.895 122.704 115.793 123.612 120.333 129.97C124.874 136.327 115.793 142.685 112.161 145.41C108.528 148.134 112.161 154.492 113.069 157.217C113.977 159.941 127.599 169.932 132.14 169.932C136.681 169.932 135.773 173.565 138.497 177.198C141.221 180.831 150.303 181.739 153.027 180.831C155.752 179.922 163.925 186.28 168.466 187.188C173.007 188.097 173.007 187.188 175.731 192.638C178.456 198.087 193.894 200.812 198.435 201.72C202.976 202.628 200.251 203.537 201.159 207.17C202.067 210.802 212.057 208.078 220.23 208.986C228.404 209.894 232.036 206.261 237.485 203.537C242.934 200.812 250.199 205.353 258.373 208.986C266.546 212.619 267.454 222.61 271.995 229.876C276.535 237.141 288.341 234.417 291.974 234.417C295.607 234.417 301.055 240.774 308.321 242.591C315.586 244.407 320.127 240.774 324.667 240.774C329.208 240.774 328.3 247.132 328.3 252.581C328.3 258.031 336.473 261.664 339.198 266.205C341.923 270.746 341.014 275.287 339.198 278.92C337.382 282.553 342.83 284.37 347.371 285.278C351.912 286.186 351.912 284.37 355.545 281.645C359.177 278.92 360.085 287.094 364.626 289.819C369.167 292.544 366.442 298.901 368.259 300.718C370.075 302.534 370.075 298.901 372.799 298.901C375.524 298.901 375.523 303.443 374.615 305.259C373.707 307.075 375.523 307.984 383.697 306.167C391.87 304.351 398.227 309.8 400.952 310.708C403.676 311.617 410.033 315.25 413.666 314.341C417.298 313.433 412.758 307.075 410.033 305.259C407.309 303.443 414.574 303.442 417.298 303.442C420.023 303.442 419.115 297.085 421.839 295.268C424.563 293.452 430.921 297.993 434.553 300.718C438.186 303.442 437.278 305.259 436.369 308.892C435.461 312.525 440.002 318.882 441.818 321.607C443.635 324.332 440.91 325.24 445.451 326.148C449.992 327.056 448.175 343.405 448.175 346.129C448.175 348.854 448.175 350.671 445.451 353.395C442.726 356.12 448.175 359.753 449.992 363.386C451.808 367.019 446.359 365.202 443.635 365.202C440.91 365.202 441.818 369.744 441.818 373.376C441.818 377.009 433.645 374.285 430.012 376.101C426.38 377.918 430.012 382.459 432.737 385.184C435.461 387.908 430.012 388.817 428.196 388.817C426.38 388.817 427.288 389.725 427.288 394.266C427.288 398.807 425.472 399.715 424.563 402.44C423.655 405.165 420.023 400.624 415.482 399.715C410.941 398.807 409.125 413.339 409.125 416.064C409.125 418.788 407.309 421.513 404.584 421.513C401.86 421.513 404.584 431.504 404.584 433.32C404.584 435.137 402.769 441.494 404.584 444.219C406.4 446.944 412.758 441.494 417.298 442.402C421.839 443.311 419.115 447.852 415.482 448.76C411.849 449.668 400.952 458.751 397.319 458.751C393.686 458.751 395.503 463.292 395.503 467.833C395.503 472.374 400.044 476.007 402.769 478.732C405.493 481.457 400.043 483.273 397.319 485.998C394.595 488.723 404.584 492.355 410.941 495.08C417.298 497.805 420.023 505.071 420.931 508.704C421.839 512.337 424.563 515.97 428.196 516.878C431.829 517.786 439.094 548.666 439.094 551.391C439.094 554.116 440.91 555.932 443.634 557.749C446.359 559.565 446.359 565.014 446.359 567.739C446.359 570.464 452.716 574.097 456.349 579.546C459.981 584.996 453.624 585.904 452.716 587.72C451.808 589.537 460.889 599.527 466.338 604.977C471.787 610.426 484.501 617.692 491.766 617.692C499.031 617.692 516.286 641.306 520.827 643.123C525.368 644.939 518.103 663.104 520.827 665.829C523.552 668.553 520.827 673.095 518.103 676.727C515.378 680.36 518.103 690.351 518.103 693.984C518.103 697.617 513.562 698.525 511.746 701.25C509.929 703.975 514.47 706.699 515.378 710.332C516.286 713.965 513.562 719.415 511.746 719.415C509.929 719.415 511.746 728.497 511.746 731.222C511.746 733.946 509.021 734.855 507.205 736.671C505.389 738.488 507.205 747.57 507.205 751.203C507.205 754.836 504.48 755.744 500.848 755.744C497.215 755.744 495.399 773.001 494.491 775.725C493.583 778.45 497.215 776.634 497.215 781.175C497.215 785.716 493.583 789.349 490.858 790.257C488.134 791.165 489.95 794.798 489.042 800.248C488.134 805.697 490.858 818.412 491.766 824.77C492.674 831.128 476.328 846.568 472.695 849.292C469.063 852.017 471.787 853.834 472.695 857.467C473.603 861.1 470.879 861.1 468.154 861.1C465.43 861.1 465.43 863.824 465.43 867.457C465.43 871.09 463.614 869.274 460.889 870.182C458.165 871.09 459.073 876.54 459.073 881.989C459.073 887.438 459.981 891.98 461.797 895.612C463.614 899.245 455.44 907.42 453.624 910.144C451.808 912.869 451.808 916.502 454.532 920.135C457.257 923.768 461.797 921.043 463.614 926.493C465.43 931.942 459.981 938.3 457.257 942.841C454.532 947.382 458.165 951.015 458.165 953.74C458.165 956.464 452.716 956.464 453.624 959.189C454.532 961.914 451.808 965.547 449.083 965.547C446.359 965.547 448.174 974.629 446.359 976.446C444.544 978.262 440.91 968.272 438.186 967.363C435.461 966.455 430.92 971.904 430.012 972.813C429.104 973.721 427.288 974.629 429.104 976.446C430.92 978.262 433.645 974.629 435.461 974.629C437.278 974.629 441.818 979.17 443.634 980.987C445.451 982.803 440.001 983.712 437.277 984.62C434.552 985.528 436.369 990.069 437.277 993.702C438.184 997.335 432.737 998.243 430.012 1000.97C427.288 1003.69 426.38 1004.6 427.288 1008.23C428.196 1011.87 433.645 1009.14 435.461 1010.05C437.278 1010.96 431.829 1015.5 433.645 1017.32C435.461 1019.13 439.094 1014.59 441.818 1016.41C444.543 1018.22 439.093 1020.95 437.277 1022.77C435.461 1024.58 434.552 1028.21 437.277 1031.85C440.001 1035.48 446.358 1030.03 448.174 1031.85C449.989 1033.66 439.093 1036.39 437.277 1038.21C435.46 1040.02 437.277 1043.66 440.001 1043.66C442.725 1043.66 447.265 1048.2 447.265 1050.01C447.265 1051.83 443.633 1052.74 448.174 1056.37C452.714 1060 460.888 1061.82 465.428 1062.73C469.969 1063.64 472.694 1061.82 476.326 1061.82C479.959 1061.82 489.04 1063.64 493.581 1063.64Z" stroke="#000F74" stroke-width="2"/>
<path d="M265.637 216.252C267.453 212.316 271.812 204.626 274.718 205.353C278.351 206.261 284.708 207.17 285.616 205.353C286.524 203.536 289.249 200.812 286.524 198.087C283.8 195.362 272.902 190.821 274.718 189.005C276.534 187.188 279.259 189.005 279.259 187.188C279.259 185.372 278.351 180.83 281.075 180.83C283.8 180.83 299.238 181.739 301.054 180.83C302.508 180.104 309.531 175.078 312.86 172.656" stroke="#000F74" stroke-width="2"/>
<path d="M360.088 131.788C359.18 134.512 354.639 130.879 352.823 132.696C352.52 132.999 352.097 133.967 352.823 135.421C353.731 137.237 355.547 137.237 360.088 137.237C364.629 137.237 366.445 136.329 366.445 133.604C366.445 130.879 369.17 130.879 374.619 130.879C380.067 130.879 380.976 129.063 384.608 126.338C388.241 123.613 385.516 130.879 388.241 132.696C390.965 134.512 400.955 131.788 403.679 131.788C406.404 131.788 411.853 136.329 413.669 137.237C415.485 138.145 422.75 140.87 424.567 140.87C426.383 140.87 427.291 146.319 427.291 149.044C427.291 151.769 440.005 149.044 444.546 149.952C449.087 150.861 439.097 158.126 437.281 159.035C435.464 159.943 437.281 162.668 440.005 162.668C442.73 162.668 449.087 159.943 449.087 158.126C449.087 156.31 466.342 162.668 471.79 162.668C477.239 162.668 481.78 156.31 481.78 153.585C481.78 150.861 473.607 151.769 469.066 151.769C464.525 151.769 464.525 146.319 464.525 141.778C464.525 137.237 452.719 140.87 450.903 140.87C449.087 140.87 435.464 129.063 433.648 128.155C431.832 127.246 426.383 127.246 423.659 127.246C420.934 127.246 412.761 121.797 410.944 121.797C409.128 121.797 403.679 119.981 401.863 120.889C400.047 121.797 392.782 118.164 388.241 118.164C383.7 118.164 374.619 119.981 371.894 119.981C369.17 119.981 370.078 122.705 365.537 123.613C360.996 124.522 360.996 129.063 360.088 131.788Z" stroke="#000F74" stroke-width="2"/>
<path d="M441.821 177.199C436.009 175.746 430.923 178.41 429.107 179.924C429.107 186.282 434.556 184.465 440.005 187.19C445.454 189.915 448.178 185.374 450.903 184.465C453.628 183.557 459.984 186.282 462.709 186.282C465.433 186.282 468.158 179.016 464.525 177.199C460.893 175.383 455.443 179.016 454.535 179.924C453.627 180.832 449.087 179.016 441.821 177.199Z" stroke="#000F74" stroke-width="2"/>
<path d="M503.575 162.668C500.669 164.121 493.888 160.246 490.861 158.126C485.412 158.126 485.412 162.668 485.412 163.576C485.412 164.484 484.504 167.209 479.963 167.209C475.423 167.209 481.78 170.842 481.78 173.566C481.78 176.291 497.218 172.658 503.575 173.566C509.932 174.475 499.035 177.199 494.494 178.108C489.953 179.016 481.78 175.383 475.423 177.199C469.065 179.016 484.504 182.649 486.32 184.465C488.137 186.282 498.126 182.649 503.575 182.649C509.024 182.649 506.3 187.19 512.657 189.915C519.014 192.639 519.922 181.741 525.371 182.649C530.82 183.557 533.544 179.924 537.177 179.016C540.809 178.108 546.258 183.557 548.983 179.016C551.707 174.475 539.901 170.842 536.269 170.842C532.636 170.842 539.901 164.484 539.901 162.668C539.901 160.851 533.544 161.759 529.003 162.668C524.463 163.576 517.197 159.943 511.749 159.035C506.3 158.126 507.208 160.851 503.575 162.668Z" stroke="#000F74" stroke-width="2"/>
<path d="M571.686 178.108C568.054 178.108 566.237 177.199 562.605 179.016C562.302 179.621 561.697 181.014 561.697 181.741C561.697 182.649 567.146 186.282 572.595 186.282C578.043 186.282 582.584 185.374 583.492 181.741C584.4 178.108 575.319 178.108 571.686 178.108Z" stroke="#000F74" stroke-width="2"/>
<path d="M304.691 205.354C303.783 204.143 301.967 200.632 301.967 196.272C301.967 191.913 301.361 184.162 301.059 180.832" stroke="#000F74" stroke-width="2"/>
<path d="M316.491 206.262C312.556 208.381 304.867 213.346 305.593 216.252C306.501 219.885 301.054 226.243 299.238 226.243C297.785 226.243 293.789 231.692 291.973 234.417" stroke="#000F74" stroke-width="2"/>
<path d="M328.301 243.499C327.998 241.682 326.666 238.049 323.76 238.049C320.128 238.049 322.852 231.692 320.128 230.784C317.403 229.875 312.863 234.417 310.138 230.784C307.959 227.877 303.781 225.334 301.965 224.426" stroke="#000F74" stroke-width="2"/>
<path d="M373.708 216.25C373.103 218.369 370.984 222.608 367.351 222.608C362.81 222.608 356.453 223.516 356.453 224.424C356.453 225.332 354.637 232.598 349.188 232.598C343.739 232.598 331.025 231.69 331.933 234.415C332.66 236.594 329.814 241.983 328.301 244.405" stroke="#000F74" stroke-width="2"/>
<path d="M341.016 271.656C342.226 270.445 345.011 268.204 346.465 268.931C348.281 269.839 351.005 272.564 353.73 271.656C356.454 270.747 357.362 268.931 360.087 268.931C362.266 268.931 365.233 269.536 366.444 269.839" stroke="#000F74" stroke-width="2"/>
<path d="M385.519 287.094C383.097 287.094 378.435 287.639 379.162 289.818C379.888 291.998 380.069 302.231 380.069 307.075" stroke="#000F74" stroke-width="2"/>
<path d="M450.904 307.074C450.601 309.496 449.632 314.158 448.179 313.432C446.363 312.524 441.822 306.166 441.822 310.707C441.822 314.34 440.006 317.065 439.098 317.973" stroke="#000F74" stroke-width="2"/>
<path d="M476.328 1061.82C475.117 1057.89 473.058 1049.47 474.511 1047.29C475.965 1045.11 478.144 1041.54 479.053 1040.02" stroke="#000F74" stroke-width="2"/>
<path d="M472.693 1038.21C469.364 1039.11 462.522 1040.39 461.796 1038.21C460.887 1035.48 446.357 1024.58 447.265 1017.32C448.173 1010.05 445.447 1001.88 447.265 1000.97C449.083 1000.06 458.167 992.794 459.981 985.528C461.796 978.262 459.073 969.179 461.797 969.179C464.522 969.179 466.338 970.088 466.338 966.455C466.338 962.822 464.522 954.648 466.338 954.648C468.154 954.648 471.787 955.556 471.787 952.831C471.787 950.107 469.063 948.29 469.063 945.565C469.063 942.841 471.787 938.299 471.787 935.575C471.787 932.85 467.246 933.758 468.154 931.034C469.063 928.309 474.512 920.135 474.512 916.502C474.512 912.869 472.695 902.878 474.512 902.878C476.328 902.878 484.501 895.612 484.501 887.438C484.501 879.264 481.777 878.356 484.501 872.906C487.226 867.457 502.664 842.935 503.572 842.026C504.48 841.118 511.746 834.76 509.929 826.586C508.113 818.412 505.389 816.596 505.389 812.963C505.389 809.33 503.572 799.339 505.389 798.431C507.205 797.523 514.47 794.798 514.47 792.073C514.47 789.349 512.654 786.624 509.929 783.899C507.205 781.175 528.092 753.927 530.817 753.019C533.541 752.111 536.266 751.203 536.266 748.478C536.266 745.753 533.541 742.12 534.449 740.304C535.357 738.487 541.714 735.763 540.806 731.222C539.898 726.68 534.449 722.139 537.174 718.506C539.898 714.873 552.612 713.965 552.612 710.332C552.612 707.426 553.823 700.644 554.429 697.617C558.061 696.103 565.326 692.349 565.326 689.443C565.326 685.81 570.775 679.452 571.683 682.177C572.591 684.902 575.316 687.626 578.04 687.626C580.22 687.626 583.792 688.837 585.306 689.443C585.608 692.47 586.759 698.162 588.938 696.709C591.663 694.892 592.571 689.443 597.111 688.535C601.652 687.626 607.101 690.351 609.826 688.535C612.55 686.718 612.55 678.544 617.091 674.911C621.631 671.278 626.172 663.104 628.897 660.379C631.621 657.655 643.427 660.379 643.427 658.563C643.427 656.746 656.141 654.93 657.957 656.746C659.774 658.563 666.131 665.829 667.947 664.012C669.763 662.196 667.947 657.655 667.947 654.93C667.947 652.205 673.396 641.306 671.58 638.582C669.763 635.857 670.671 621.325 665.223 621.325C659.774 621.325 647.06 621.325 646.151 616.784C645.243 612.243 643.427 606.793 644.335 603.161C645.243 599.528 648.876 600.436 647.06 597.711C645.243 594.986 642.519 594.078 642.519 590.445C642.519 586.812 641.611 583.179 638.886 583.179C636.162 583.179 632.529 582.271 629.805 581.363C627.08 580.455 617.091 569.556 612.55 569.556C608.009 569.556 598.928 572.28 596.203 566.831C593.479 561.382 589.846 560.473 590.754 554.116C591.663 547.758 595.295 533.226 590.754 533.226C586.214 533.226 578.04 532.318 577.132 534.135C576.224 535.951 570.775 543.217 566.234 543.217C561.694 543.217 556.245 551.391 552.612 551.391C548.98 551.391 542.623 551.391 538.99 550.483C535.357 549.575 528.092 548.666 528.092 545.942C528.092 543.217 533.541 534.135 528.092 534.135C522.643 534.135 519.919 540.492 515.378 538.676C510.837 536.859 512.654 527.777 505.389 528.685C498.123 529.593 498.123 530.502 498.123 527.777C498.123 525.052 483.593 505.071 488.134 499.622C492.674 494.172 497.215 495.081 497.215 489.631C497.215 484.182 497.215 473.283 504.48 471.466C511.746 469.65 524.46 468.742 525.368 466.017C526.276 463.292 533.541 470.558 535.357 467.833C537.174 465.109 545.347 423.33 542.623 419.697C539.898 416.064 530.817 411.523 536.266 408.798C541.714 406.073 547.163 407.89 546.255 403.349C545.347 398.808 529.909 393.358 538.082 391.542C546.255 389.725 556.245 393.358 556.245 389.725C556.245 386.092 567.143 381.551 567.143 385.184C567.143 388.817 567.143 398.808 571.683 398.808C576.224 398.808 584.397 406.073 585.306 403.349C586.214 400.624 616.183 392.45 617.999 385.184C619.815 377.918 608.917 382.459 608.917 377.01C608.917 371.561 611.642 361.57 605.285 360.662C598.928 359.754 608.009 358.845 611.642 358.845C615.274 358.845 619.815 364.295 622.54 361.57C625.264 358.845 635.254 357.029 640.703 355.212C646.151 353.396 654.325 348.855 653.417 347.038C652.508 345.222 663.406 346.13 663.406 355.212C663.406 364.295 656.141 369.744 658.866 372.469C661.59 375.193 657.957 393.358 662.498 392.45C667.039 391.542 673.396 399.716 680.661 396.083C687.926 392.45 691.559 389.725 697.008 389.725C702.457 389.725 701.548 384.276 706.089 383.368C710.63 382.459 726.068 385.184 731.517 385.184C736.966 385.184 745.14 389.725 746.048 386.092C746.956 382.459 760.578 365.203 758.762 363.386C757.309 361.933 759.367 359.148 760.578 357.937" stroke="#000F74" stroke-width="2"/>
<path d="M730.611 342.5C728.795 345.225 725.526 350.856 726.979 351.582C728.795 352.491 733.335 358.848 731.519 361.573C729.703 364.298 727.886 375.197 729.703 375.197C731.156 375.197 726.676 381.251 724.254 384.279" stroke="#000F74" stroke-width="2"/>
<path d="M699.732 389.723C697.613 386.998 693.375 380.277 693.375 375.191C693.375 368.833 687.926 367.017 685.202 364.292C682.477 361.567 681.569 355.21 684.293 353.393C687.018 351.577 691.56 350.669 691.56 345.219C691.56 340.86 690.954 336.137 690.651 334.32" stroke="#000F74" stroke-width="2"/>
<path d="M660.683 303.445C657.05 306.17 649.967 311.801 650.693 312.528C651.601 313.436 652.511 321.61 649.786 321.61C647.062 321.61 643.429 325.243 644.338 328.876C645.064 331.782 650.694 341.591 653.419 346.132" stroke="#000F74" stroke-width="2"/>
<path d="M631.621 836.579C630.713 832.341 629.805 823.682 633.438 822.956C637.978 822.048 643.427 815.69 643.427 810.241C643.427 804.791 642.519 790.259 649.784 788.443C657.05 786.626 651.601 779.361 659.774 779.361C667.947 779.361 686.11 765.737 687.018 762.104C687.927 758.471 706.09 753.93 705.181 746.664C704.273 739.398 700.641 726.683 697.916 730.316C695.192 733.949 684.294 753.93 678.845 753.93C673.396 753.93 638.887 763.012 644.336 752.114C649.784 741.215 667.039 733.949 659.774 730.316C652.509 726.683 624.356 713.059 620.724 709.427C617.818 706.52 609.22 694.895 605.285 689.445" stroke="#000F74" stroke-width="2"/>
<path d="M699.73 729.405C700.941 728.799 703 726.498 701.547 722.139C699.73 716.689 702.455 710.332 699.73 711.24C697.006 712.148 689.741 714.873 689.741 709.424C689.741 703.974 693.373 695.8 688.832 695.8C684.292 695.8 664.312 694.892 664.312 688.534C664.312 682.176 667.945 683.085 667.945 680.36C667.945 678.18 667.945 668.553 667.945 664.012" stroke="#000F74" stroke-width="2"/>
<path d="M653.418 785.719C656.142 786.324 661.591 788.262 661.591 791.168C661.591 794.801 665.224 799.342 669.765 799.342C674.305 799.342 678.846 800.251 680.662 803.883C682.115 806.79 690.955 817.81 695.193 822.956" stroke="#000F74" stroke-width="2"/>
<path d="M554.428 698.523C552.309 698.22 547.526 695.253 545.346 685.808C542.622 674.001 535.357 668.551 538.081 664.918C540.805 661.285 547.16 651.295 542.62 649.478C538.081 647.662 534.445 642.212 536.263 634.946C538.081 627.681 548.977 623.139 547.162 618.598C545.346 614.057 538.081 605.883 538.081 600.433C538.081 594.984 545.346 592.259 545.346 586.81C545.346 581.361 542.62 575.911 542.62 573.186C542.62 570.462 550.794 570.462 548.978 565.92C547.525 562.288 542.318 554.113 539.897 550.48" stroke="#000F74" stroke-width="2"/>
<path d="M547.163 619.508C542.622 621.627 533.54 626.41 533.54 628.59C533.54 631.315 530.816 642.214 528.091 642.214C525.912 642.214 522.945 643.425 521.734 644.03" stroke="#000F74" stroke-width="2"/>
<path d="M427.289 396.086C432.738 401.233 444.907 411.526 449.993 411.526C456.35 411.526 463.615 409.709 467.248 411.526C470.88 413.342 481.778 408.801 482.686 414.251C483.594 419.7 492.676 429.691 495.4 432.415C498.125 435.14 491.768 444.222 497.216 444.222C502.665 444.222 509.931 438.773 514.471 439.681C519.012 440.59 531.726 442.406 531.726 444.222C531.726 446.039 523.553 458.754 526.277 458.754C528.457 458.754 533.845 462.993 536.267 465.112" stroke="#000F74" stroke-width="2"/>
<path d="M474.511 411.523C476.933 416.973 480.323 428.962 474.511 433.321C467.246 438.771 447.267 446.036 441.818 448.761C436.369 451.486 434.552 471.467 429.104 469.651C423.655 467.834 424.563 461.476 419.114 463.293C413.665 465.109 407.308 468.742 408.216 463.293C408.943 458.933 410.942 453 411.85 450.578" stroke="#000F74" stroke-width="2"/>
<path d="M509.024 267.113C503.878 275.287 494.312 291.999 497.218 293.452C500.851 295.269 508.117 298.902 507.209 304.351C506.3 309.8 504.482 318.883 509.024 318.883C513.566 318.883 538.086 319.791 538.086 322.516C538.086 325.24 541.718 332.506 546.259 332.506C550.8 332.506 569.871 329.782 568.054 334.323C566.238 338.864 555.34 357.937 559.881 358.845C564.422 359.753 569.871 367.019 566.238 367.019C562.606 367.019 553.524 373.377 558.065 373.377C562.606 373.377 574.411 378.826 573.503 381.551C572.595 384.276 574.411 401.532 578.952 401.532" stroke="#000F74" stroke-width="2"/>
</svg>
