<svg width="79" height="66" viewBox="0 0 79 66" fill="none" xmlns="http://www.w3.org/2000/svg">
<path fill-rule="evenodd" clip-rule="evenodd" d="M4.78387 43.9833C7.84693 40.9203 12.0013 39.1995 16.3331 39.1995H42.4662C46.798 39.1995 50.9524 40.9203 54.0155 43.9833C57.0785 47.0464 58.7993 51.2008 58.7993 55.5326V62.0659C58.7993 63.87 57.3368 65.3325 55.5327 65.3325C53.7286 65.3325 52.2661 63.87 52.2661 62.0659V55.5326C52.2661 52.9335 51.2336 50.4409 49.3958 48.603C47.5579 46.7652 45.0653 45.7327 42.4662 45.7327H16.3331C13.7341 45.7327 11.2414 46.7652 9.40358 48.603C7.56574 50.4409 6.53326 52.9335 6.53326 55.5326V62.0659C6.53326 63.87 5.07074 65.3325 3.26663 65.3325C1.46252 65.3325 0 63.87 0 62.0659V55.5326C0 51.2008 1.72081 47.0464 4.78387 43.9833Z" fill="#D500F9"/>
<path fill-rule="evenodd" clip-rule="evenodd" d="M29.3996 6.53326C23.9872 6.53326 19.5997 10.9208 19.5997 16.3331C19.5997 21.7455 23.9872 26.133 29.3996 26.133C34.8119 26.133 39.1994 21.7455 39.1994 16.3331C39.1994 10.9208 34.8119 6.53326 29.3996 6.53326ZM13.0664 16.3331C13.0664 7.3126 20.379 0 29.3996 0C38.4201 0 45.7327 7.3126 45.7327 16.3331C45.7327 25.3537 38.4201 32.6663 29.3996 32.6663C20.379 32.6663 13.0664 25.3537 13.0664 16.3331Z" fill="#D500F9"/>
<path fill-rule="evenodd" clip-rule="evenodd" d="M62.1709 42.0743C62.622 40.3275 64.4037 39.277 66.1505 39.7281C69.6545 40.6328 72.7588 42.6756 74.976 45.5358C77.1931 48.3959 78.3976 51.9115 78.4003 55.5304L78.4003 62.0661C78.4003 63.8702 76.9378 65.3327 75.1337 65.3327C73.3296 65.3327 71.8671 63.8702 71.8671 62.0661L71.8671 55.5352C71.8671 55.5349 71.8671 55.5356 71.8671 55.5352C71.8653 53.3642 71.1426 51.2543 69.8125 49.5385C68.4821 47.8224 66.6196 46.5967 64.5172 46.0539C62.7703 45.6028 61.7199 43.8211 62.1709 42.0743Z" fill="#D500F9"/>
<path fill-rule="evenodd" clip-rule="evenodd" d="M49.1029 2.88099C49.5504 1.13326 51.3299 0.0792067 53.0777 0.526697C56.591 1.42625 59.705 3.46953 61.9288 6.3344C64.1525 9.19927 65.3596 12.7228 65.3596 16.3494C65.3596 19.9761 64.1525 23.4996 61.9288 26.3645C59.705 29.2293 56.591 31.2726 53.0777 32.1722C51.3299 32.6197 49.5504 31.5656 49.1029 29.8179C48.6554 28.0701 49.7094 26.2906 51.4572 25.8431C53.5652 25.3033 55.4336 24.0774 56.7678 22.3585C58.1021 20.6395 58.8263 18.5254 58.8263 16.3494C58.8263 14.1734 58.1021 12.0593 56.7678 10.3404C55.4336 8.62149 53.5652 7.39552 51.4572 6.85579C49.7094 6.4083 48.6554 4.62872 49.1029 2.88099Z" fill="#D500F9"/>
</svg>
